QTM490
…
Year = HC_VT$YEAR
VotedPercent = HC_VT$VotedPercent
Variable = "Harris"
HC_VT2 = cbind(Year, VotedPercent, Variable)
HC_VT2 = as.data.frame(HC_VT2)
HC_VT2$VotedPercent = as.numeric(as.character(HC_VT2$VotedPercent))

comb = merge(TXVTbyYear2, HC_VT2, all = TRUE)
comb <- comb %>%
  group_by(Year) 
comb

## # A tibble: 32 x 3
## # Groups:   Year [16]
##    Year  VotedPercent Variable
##    <chr>        <dbl> <fct>   
##  1 1988          64.6 Harris  
##  2 1988          66.2 Texas   
##  3 1990          47.1 Harris  
##  4 1990          50.6 Texas   
##  5 1992          71.7 Harris  
##  6 1992          72.9 Texas   
##  7 1994          49.0 Harris  
##  8 1994          50.9 Texas   
##  9 1996          53.2 Texas   
## 10 1996          53.7 Harris  
## #  with 22 more rows
…
